%YAML 1.1
%TAG !u! tag:unity3d.com,2011:
--- !u!78 &1
TagManager:
  serializedVersion: 2
  tags:
  - Ground
  - Enemy
  - DeadArea
  - HitArea
  - GroundPlatform
  - MoveFloor
  - FallFloor
  layers:
  - Default
  - TransparentFX
  - Ignore Raycast
  - 
  - Water
  - UI
  - 
  - 
  - 
  - 
  - 
  - 
  - 
  - 
  - 
  - 
  - 
  - 
  - 
  - 
  - 
  - 
  - 
  - 
  - 
  - 
  - 
  - 
  - 
  - 
  - 
  - 
  m_SortingLayers:
  - name: BackGround
    uniqueID: 1535691907
    locked: 0
  - name: BackGroundTile
    uniqueID: 2011494133
    locked: 0
  - name: TileMap
    uniqueID: 1949165631
    locked: 0
  - name: Default
    uniqueID: 0
    locked: 0
